{
    "Items": [
        {
            "Item": {
                "mediumImageUrls": [
                    {
                        "imageUrl": "https://thumbnail.image.rakuten.co.jp/@0_mall/bookoffonline/cabinet/223/0015504910l.jpg?_ex=128x128"
                    }
                ],
                "pointRate": 1,
                "shopOfTheYearFlag": 0,
                "affiliateRate": 3,
                "shipOverseasFlag": 0,
                "asurakuFlag": 0,
                "endTime": "",
                "taxFlag": 0,
                "startTime": "",
                "itemCaption": "川端淳司【著】販売会社/発売会社：テイエス企画/テイエス企画発売年月日：2006/08/07JAN：9784887840706／／付属品〜CD3枚付",
                "catchcopy": "",
                "tagIds": [],
                "smallImageUrls": [
                    {
                        "imageUrl": "https://thumbnail.image.rakuten.co.jp/@0_mall/bookoffonline/cabinet/223/0015504910l.jpg?_ex=64x64"
                    }
                ],
                "asurakuClosingTime": "",
                "imageFlag": 1,
                "availability": 1,
                "shopAffiliateUrl": "https://hb.afl.rakuten.co.jp/hgc/g00rc686.s3lt7e53.g00rc686.s3lt8845/?pc=https%3A%2F%2Fwww.rakuten.co.jp%2Fbookoffonline%2F&m=http%3A%2F%2Fm.rakuten.co.jp%2Fbookoffonline%2F",
                "itemCode": "bookoffonline:11274473",
                "postageFlag": 1,
                "itemName": "【中古】 TOEFL\u3000TEST対策iBTスピーキング ／川端淳司【著】 【中古】afb",
                "itemPrice": 822,
                "pointRateEndTime": "",
                "shopCode": "bookoffonline",
                "affiliateUrl": "https://hb.afl.rakuten.co.jp/hgc/g00rc686.s3lt7e53.g00rc686.s3lt8845/?pc=https%3A%2F%2Fitem.rakuten.co.jp%2Fbookoffonline%2F0015504910%2F&m=http%3A%2F%2Fm.rakuten.co.jp%2Fbookoffonline%2Fi%2F11274473%2F",
                "giftFlag": 0,
                "shopName": "ブックオフオンライン楽天市場店",
                "reviewCount": 0,
                "asurakuArea": "",
                "shopUrl": "https://hb.afl.rakuten.co.jp/hgc/g00rc686.s3lt7e53.g00rc686.s3lt8845/?pc=https%3A%2F%2Fwww.rakuten.co.jp%2Fbookoffonline%2F&m=http%3A%2F%2Fm.rakuten.co.jp%2Fbookoffonline%2F",
                "creditCardFlag": 1,
                "reviewAverage": 0,
                "shipOverseasArea": "",
                "genreId": "208714",
                "pointRateStartTime": "",
                "itemUrl": "https://hb.afl.rakuten.co.jp/hgc/g00rc686.s3lt7e53.g00rc686.s3lt8845/?pc=https%3A%2F%2Fitem.rakuten.co.jp%2Fbookoffonline%2F0015504910%2F&m=http%3A%2F%2Fm.rakuten.co.jp%2Fbookoffonline%2Fi%2F11274473%2F"
            }
        },
        {
            "Item": {
                "mediumImageUrls": [
                    {
                        "imageUrl": "https://thumbnail.image.rakuten.co.jp/@0_mall/book/cabinet/4376/4528189544376.jpg?_ex=128x128"
                    },
                    {
                        "imageUrl": "https://thumbnail.image.rakuten.co.jp/@0_mall/book/cabinet/4376/4528189544376_2.jpg?_ex=128x128"
                    },
                    {
                        "imageUrl": "https://thumbnail.image.rakuten.co.jp/@0_mall/book/cabinet/4376/4528189544376_3.jpg?_ex=128x128"
                    }
                ],
                "pointRate": 1,
                "shopOfTheYearFlag": 0,
                "affiliateRate": 3,
                "shipOverseasFlag": 0,
                "asurakuFlag": 0,
                "endTime": "2019-10-11 01:59",
                "taxFlag": 0,
                "startTime": "2019-10-04 20:00",
                "itemCaption": "栗本\u3000孝子 （株）誠文堂新光社バーゲン本,バーゲンブック,送料無料,半額,50%OFF,タイムセール シュンカンエイタンゴ600テントッパサイショノ450ゴーTOEIC\u3000TEST クリモト\u3000タカコ 予約締切日：2018年02月06日 ページ数：271p サイズ：単行本 ISBN：4528189544376 本 語学・学習参考書 語学関係資格 TOEIC 資格・検定 語学関係資格 TOEIC バーゲン本 語学・学習参考書",
                "catchcopy": "【楽天ブックスならいつでも送料無料】",
                "tagIds": [],
                "smallImageUrls": [
                    {
                        "imageUrl": "https://thumbnail.image.rakuten.co.jp/@0_mall/book/cabinet/4376/4528189544376.jpg?_ex=64x64"
                    },
                    {
                        "imageUrl": "https://thumbnail.image.rakuten.co.jp/@0_mall/book/cabinet/4376/4528189544376_2.jpg?_ex=64x64"
                    },
                    {
                        "imageUrl": "https://thumbnail.image.rakuten.co.jp/@0_mall/book/cabinet/4376/4528189544376_3.jpg?_ex=64x64"
                    }
                ],
                "asurakuClosingTime": "",
                "imageFlag": 1,
                "availability": 1,
                "shopAffiliateUrl": "https://hb.afl.rakuten.co.jp/hgc/g00q0726.s3lt72b0.g00q0726.s3lt8afe/?pc=https%3A%2F%2Fwww.rakuten.co.jp%2Fbook%2F&m=http%3A%2F%2Fm.rakuten.co.jp%2Fbook%2F",
                "itemCode": "book:19012960",
                "postageFlag": 0,
                "itemName": "【バーゲン本】瞬感英単語600点突破最初の450語ーTOEIC\u3000TEST [ 栗本\u3000孝子 ]",
                "itemPrice": 440,
                "pointRateEndTime": "",
                "shopCode": "book",
                "affiliateUrl": "https://hb.afl.rakuten.co.jp/hgc/g00q0726.s3lt72b0.g00q0726.s3lt8afe/?pc=https%3A%2F%2Fitem.rakuten.co.jp%2Fbook%2F15351909%2F&m=http%3A%2F%2Fm.rakuten.co.jp%2Fbook%2Fi%2F19012960%2F",
                "giftFlag": 0,
                "shopName": "楽天ブックス",
                "reviewCount": 6,
                "asurakuArea": "",
                "shopUrl": "https://hb.afl.rakuten.co.jp/hgc/g00q0726.s3lt72b0.g00q0726.s3lt8afe/?pc=https%3A%2F%2Fwww.rakuten.co.jp%2Fbook%2F&m=http%3A%2F%2Fm.rakuten.co.jp%2Fbook%2F",
                "creditCardFlag": 1,
                "reviewAverage": 4.5,
                "shipOverseasArea": "",
                "genreId": "208883",
                "pointRateStartTime": "",
                "itemUrl": "https://hb.afl.rakuten.co.jp/hgc/g00q0726.s3lt72b0.g00q0726.s3lt8afe/?pc=https%3A%2F%2Fitem.rakuten.co.jp%2Fbook%2F15351909%2F&m=http%3A%2F%2Fm.rakuten.co.jp%2Fbook%2Fi%2F19012960%2F"
            }
        },
        {
            "Item": {
                "mediumImageUrls": [
                    {
                        "imageUrl": "https://thumbnail.image.rakuten.co.jp/@0_mall/comicset/cabinet/05052595/bkv0dnpgyajeaqqf.jpg?_ex=128x128"
                    }
                ],
                "pointRate": 1,
                "shopOfTheYearFlag": 1,
                "affiliateRate": 3,
                "shipOverseasFlag": 0,
                "asurakuFlag": 1,
                "endTime": "",
                "taxFlag": 0,
                "startTime": "",
                "itemCaption": "著者：加藤 優出版社：朝日新聞出版サイズ：単行本ISBN-10：402330977xISBN-13：9784023309777■こちらの商品もオススメです ● 新TOEIC\u3000test読解特急 1駅1題 / 神崎 正哉, TEX加藤, Daniel Warriner / 朝日新聞出版 [新書] ● 新TOEIC\u3000test英文法出るとこだけ！ 直前5日間で100点差がつく27の鉄則 / 小石 裕子 / アルク [単行本] ● 新TOEIC\u3000TEST出る単特急金のフレーズ / TEX加藤 / 朝日新聞出版 [新書] ● 新TOEIC\u3000test文法特急 1駅1題 / 花田 徹也 / 朝日新聞出版 [新書] ● 新TOEIC\u3000TESTパート3・4特急実力養成ドリル / 神崎正哉, Daniel Warriner / 朝日新聞出版 [単行本] ● 新TOEIC\u3000TESTパート1・2特急2出る問難問200 / 森田鉄也 / 朝日新聞出版 [単行本] ● 中学3年間の英語でTOEICテスト630点を取る本 / 小池真由美 / フォレスト出版 [単行本（ソフトカバー）] ● 新TOEIC\u3000TEST文法特急 2（急所アタック編） / 花田徹也 / 朝日新聞出版 [単行本] ● 新TOEICテスト中学英語リスニングで600点！ / 小石 裕子 / アルク [単行本] ● 新TOEIC\u3000TEST読解特急 5（ダブルパッセージ編） / 神崎正哉, TEX加藤, Daniel Warriner / 朝日新聞出版 [単行本] ● イタリアの缶詰 おいしくて・たのしくて・にぎやか / 内田 洋子 / 大和書房 [単行本] ● 新TOEIC\u3000TEST読解特急 2（スピード強化編） / 神崎正哉, TEX加藤, ダニエル・ワーリナ / 朝日新聞出版 [新書] ■通常24時間以内に出荷可能です。■メール便は、1冊から送料無料です。※宅配便の場合、2,500円以上送料無料です。※あす楽ご希望の方は、宅配便をご選択下さい。※「代引き」ご希望の方は宅配便をご選択下さい。■ただいま、しおり、カレンダーをプレゼントしております。■お急ぎの方は「もったいない本舗\u3000お急ぎ便店」をご利用ください。最短翌日配送、手数料198円から■まとめ買いの方は「もったいない本舗\u3000おまとめ店」がお買い得です。■中古品ではございますが、良好なコンディションです。決済は、クレジットカード、代引き等、各種決済方法がご利用可能です。■万が一品質に不備が有った場合は、返金対応。■クリーニング済み。■商品画像に「帯」が付いているものがありますが、中古品のため、実際の商品には付いていない場合がございます。■”s1、s2”などの番号は、弊社管理番号です。どちらでもご購入いただけます。■商品状態の表記につきまして・非常に良い：\u3000\u3000使用されてはいますが、\u3000\u3000非常にきれいな状態です。\u3000\u3000書き込みや線引きはありません。・良い：\u3000\u3000比較的綺麗な状態の商品です。\u3000\u3000ページやカバーに欠品はありません。\u3000\u3000文章を読むのに支障はありません。・可：\u3000\u3000文章が問題なく読める状態の商品です。\u3000\u3000マーカーやペンで書込があることがあります。\u3000\u3000商品の痛みがある場合があります。",
                "catchcopy": "【メール便送料無料、通常24時間以内出荷】",
                "tagIds": [],
                "smallImageUrls": [
                    {
                        "imageUrl": "https://thumbnail.image.rakuten.co.jp/@0_mall/comicset/cabinet/05052595/bkv0dnpgyajeaqqf.jpg?_ex=64x64"
                    }
                ],
                "asurakuClosingTime": "12:00",
                "imageFlag": 1,
                "availability": 1,
                "shopAffiliateUrl": "https://hb.afl.rakuten.co.jp/hgc/g00qs416.s3lt71a5.g00qs416.s3lt8ec3/?pc=https%3A%2F%2Fwww.rakuten.co.jp%2Fcomicset%2F&m=http%3A%2F%2Fm.rakuten.co.jp%2Fcomicset%2F",
                "itemCode": "comicset:11623705",
                "postageFlag": 1,
                "itemName": "【中古】 新TOEIC\u3000TEST\u3000900点特急 パート5＆6 / 加藤 優 / 朝日新聞出版 [単行本]【メール便送料無料】【あす楽対応】",
                "itemPrice": 323,
                "pointRateEndTime": "",
                "shopCode": "comicset",
                "affiliateUrl": "https://hb.afl.rakuten.co.jp/hgc/g00qs416.s3lt71a5.g00qs416.s3lt8ec3/?pc=https%3A%2F%2Fitem.rakuten.co.jp%2Fcomicset%2F402330977x%2F&m=http%3A%2F%2Fm.rakuten.co.jp%2Fcomicset%2Fi%2F11623705%2F",
                "giftFlag": 0,
                "shopName": "もったいない本舗\u3000楽天市場店",
                "reviewCount": 0,
                "asurakuArea": "群馬県/埼玉県/千葉県/東京都/神奈川県/新潟県/富山県/石川県/福井県/山梨県/長野県/岐阜県/静岡県/愛知県/三重県/滋賀県/京都府/大阪府/兵庫県/奈良県/宮城県/山形県/福島県/茨城県/栃木県",
                "shopUrl": "https://hb.afl.rakuten.co.jp/hgc/g00qs416.s3lt71a5.g00qs416.s3lt8ec3/?pc=https%3A%2F%2Fwww.rakuten.co.jp%2Fcomicset%2F&m=http%3A%2F%2Fm.rakuten.co.jp%2Fcomicset%2F",
                "creditCardFlag": 1,
                "reviewAverage": 0,
                "shipOverseasArea": "",
                "genreId": "208711",
                "pointRateStartTime": "",
                "itemUrl": "https://hb.afl.rakuten.co.jp/hgc/g00qs416.s3lt71a5.g00qs416.s3lt8ec3/?pc=https%3A%2F%2Fitem.rakuten.co.jp%2Fcomicset%2F402330977x%2F&m=http%3A%2F%2Fm.rakuten.co.jp%2Fcomicset%2Fi%2F11623705%2F"
            }
        }
    ],
    "pageCount": 100,
    "TagInformation": [],
    "hits": 3,
    "last": 3,
    "count": 164282,
    "page": 1,
    "carrier": 0,
    "GenreInformation": [],
    "first": 1
}